<!--
  - Copyright 2012 - 2022 Manuel Laggner
  -
  - Licensed under the Apache License, Version 2.0 (the "License");
  - you may not use this file except in compliance with the License.
  - You may obtain a copy of the License at
  -
  -     http://www.apache.org/licenses/LICENSE-2.0
  -
  - Unless required by applicable law or agreed to in writing, software
  - distributed under the License is distributed on an "AS IS" BASIS,
  - WITHOUT WARRANTIES OR CONDITIONS OF ANY KIND, either express or implied.
  - See the License for the specific language governing permissions and
  - limitations under the License.
  -->

<svg xmlns="http://www.w3.org/2000/svg"
     viewBox="0 0 448 512"><!--! Font Awesome Pro 6.1.1 by @fontawesome - https://fontawesome.com License - https://fontawesome.com/license (Commercial License) Copyright 2022 Fonticons, Inc. -->
    <path d="M207.4 265.3c9.313 8.875 23.88 8.875 33.19 0l184-176c9.563-9.156 9.906-24.34 .75-33.94C420.6 50.47 414.3 48 408 48c-5.969 0-11.94 2.219-16.59 6.656L224 214.8L56.59 54.66C46.1 45.53 31.81 45.81 22.65 55.41S13.84 80.19 23.4 89.34L207.4 265.3zM408 240c-5.969 0-11.94 2.219-16.59 6.656L224 406.8L56.59 246.7C46.1 237.5 31.81 237.8 22.65 247.4S13.84 272.2 23.4 281.3l184 176c9.313 8.875 23.88 8.875 33.19 0l184-176c9.563-9.156 9.906-24.34 .75-33.94C420.6 242.5 414.3 240 408 240z"/>
</svg>
